{
  "formatVersion": 1,
  "database": {
    "version": 4,
    "identityHash": "1fb795ff9898a1cd8ebdf166e99bce25",
    "entities": [
      {
        "tableName": "config",
        "createSql": "CREATE TABLE IF NOT EXISTS `${TABLE_NAME}` (`key` TEXT NOT NULL, `value` TEXT, PRIMARY KEY(`key`))",
        "fields": [
          {
            "fieldPath": "key",
            "columnName": "key",
            "affinity": "TEXT",
            "notNull": true
          },
          {
            "fieldPath": "value",
            "columnName": "value",
            "affinity": "TEXT",
            "notNull": false
          }
        ],
        "primaryKey": {
          "columnNames": [
            "key"
          ],
          "autoGenerate": false
        },
        "indices": [],
        "foreignKeys": []
      },
      {
        "tableName": "conversations",
        "createSql": "CREATE TABLE IF NOT EXISTS `${TABLE_NAME}` (`conversation_id` INTEGER PRIMARY KEY AUTOINCREMENT NOT NULL, `mask` TEXT NOT NULL, `channels` TEXT NOT NULL, `ip_public_key` TEXT, `ip_last_synced_timestamp` INTEGER NOT NULL, `display` TEXT, `image` TEXT, `pb_last_synced_timestamp` INTEGER NOT NULL, `type` TEXT NOT NULL, `type_set_by` TEXT NOT NULL, `sub_type` TEXT, `draft_message` TEXT, `last_message_id` TEXT, `last_message_data` TEXT, `last_message_timestamp` INTEGER NOT NULL, `no_of_unread_messages` INTEGER NOT NULL, `is_send_notifications` INTEGER NOT NULL, `is_notifications_sound` INTEGER NOT NULL, `is_notifications_light` INTEGER NOT NULL, `is_notifications_popup` INTEGER NOT NULL, FOREIGN KEY(`last_message_id`) REFERENCES `messages`(`message_id`) ON UPDATE NO ACTION ON DELETE SET NULL )",
        "fields": [
          {
            "fieldPath": "conversationId",
            "columnName": "conversation_id",
            "affinity": "INTEGER",
            "notNull": true
          },
          {
            "fieldPath": "mask",
            "columnName": "mask",
            "affinity": "TEXT",
            "notNull": true
          },
          {
            "fieldPath": "channels",
            "columnName": "channels",
            "affinity": "TEXT",
            "notNull": true
          },
          {
            "fieldPath": "ipPublicKey",
            "columnName": "ip_public_key",
            "affinity": "TEXT",
            "notNull": false
          },
          {
            "fieldPath": "ipLastSyncedTimestamp",
            "columnName": "ip_last_synced_timestamp",
            "affinity": "INTEGER",
            "notNull": true
          },
          {
            "fieldPath": "display",
            "columnName": "display",
            "affinity": "TEXT",
            "notNull": false
          },
          {
            "fieldPath": "image",
            "columnName": "image",
            "affinity": "TEXT",
            "notNull": false
          },
          {
            "fieldPath": "pbLastSyncedTimestamp",
            "columnName": "pb_last_synced_timestamp",
            "affinity": "INTEGER",
            "notNull": true
          },
          {
            "fieldPath": "type",
            "columnName": "type",
            "affinity": "TEXT",
            "notNull": true
          },
          {
            "fieldPath": "typeSetBy",
            "columnName": "type_set_by",
            "affinity": "TEXT",
            "notNull": true
          },
          {
            "fieldPath": "subType",
            "columnName": "sub_type",
            "affinity": "TEXT",
            "notNull": false
          },
          {
            "fieldPath": "draftMessage",
            "columnName": "draft_message",
            "affinity": "TEXT",
            "notNull": false
          },
          {
            "fieldPath": "lastMessageId",
            "columnName": "last_message_id",
            "affinity": "TEXT",
            "notNull": false
          },
          {
            "fieldPath": "lastMessageData",
            "columnName": "last_message_data",
            "affinity": "TEXT",
            "notNull": false
          },
          {
            "fieldPath": "lastMessageTimestamp",
            "columnName": "last_message_timestamp",
            "affinity": "INTEGER",
            "notNull": true
          },
          {
            "fieldPath": "noOfUnreadMessages",
            "columnName": "no_of_unread_messages",
            "affinity": "INTEGER",
            "notNull": true
          },
          {
            "fieldPath": "isSendNotifications",
            "columnName": "is_send_notifications",
            "affinity": "INTEGER",
            "notNull": true
          },
          {
            "fieldPath": "isNotificationsSound",
            "columnName": "is_notifications_sound",
            "affinity": "INTEGER",
            "notNull": true
          },
          {
            "fieldPath": "isNotificationsLight",
            "columnName": "is_notifications_light",
            "affinity": "INTEGER",
            "notNull": true
          },
          {
            "fieldPath": "isNotificationsPopup",
            "columnName": "is_notifications_popup",
            "affinity": "INTEGER",
            "notNull": true
          }
        ],
        "primaryKey": {
          "columnNames": [
            "conversation_id"
          ],
          "autoGenerate": true
        },
        "indices": [
          {
            "name": "index_conversations_mask",
            "unique": true,
            "columnNames": [
              "mask"
            ],
            "createSql": "CREATE UNIQUE INDEX `index_conversations_mask` ON `${TABLE_NAME}` (`mask`)"
          },
          {
            "name": "index_conversations_last_message_id",
            "unique": true,
            "columnNames": [
              "last_message_id"
            ],
            "createSql": "CREATE UNIQUE INDEX `index_conversations_last_message_id` ON `${TABLE_NAME}` (`last_message_id`)"
          }
        ],
        "foreignKeys": [
          {
            "table": "messages",
            "onDelete": "SET NULL",
            "onUpdate": "NO ACTION",
            "columns": [
              "last_message_id"
            ],
            "referencedColumns": [
              "message_id"
            ]
          }
        ]
      },
      {
        "tableName": "messages",
        "createSql": "CREATE TABLE IF NOT EXISTS `${TABLE_NAME}` (`message_id` TEXT NOT NULL, `mask` TEXT NOT NULL, `direction` TEXT NOT NULL, `content` TEXT NOT NULL, `channel` TEXT NOT NULL, `carier_name` TEXT NOT NULL, `destination` TEXT, `sent_timestamp` INTEGER NOT NULL, `message_timestamp` INTEGER NOT NULL, `delivered_timestamp` INTEGER NOT NULL, `read_timestamp` INTEGER NOT NULL, `read_acknowledged` INTEGER NOT NULL, `metadata` TEXT, `search` TEXT, `message_status` TEXT, PRIMARY KEY(`message_id`), FOREIGN KEY(`mask`) REFERENCES `conversations`(`mask`) ON UPDATE NO ACTION ON DELETE CASCADE )",
        "fields": [
          {
            "fieldPath": "messageId",
            "columnName": "message_id",
            "affinity": "TEXT",
            "notNull": true
          },
          {
            "fieldPath": "mask",
            "columnName": "mask",
            "affinity": "TEXT",
            "notNull": true
          },
          {
            "fieldPath": "direction",
            "columnName": "direction",
            "affinity": "TEXT",
            "notNull": true
          },
          {
            "fieldPath": "content",
            "columnName": "content",
            "affinity": "TEXT",
            "notNull": true
          },
          {
            "fieldPath": "channel",
            "columnName": "channel",
            "affinity": "TEXT",
            "notNull": true
          },
          {
            "fieldPath": "carierName",
            "columnName": "carier_name",
            "affinity": "TEXT",
            "notNull": true
          },
          {
            "fieldPath": "destination",
            "columnName": "destination",
            "affinity": "TEXT",
            "notNull": false
          },
          {
            "fieldPath": "sentTimestamp",
            "columnName": "sent_timestamp",
            "affinity": "INTEGER",
            "notNull": true
          },
          {
            "fieldPath": "messageTimestamp",
            "columnName": "message_timestamp",
            "affinity": "INTEGER",
            "notNull": true
          },
          {
            "fieldPath": "deliveredTimestamp",
            "columnName": "delivered_timestamp",
            "affinity": "INTEGER",
            "notNull": true
          },
          {
            "fieldPath": "readTimestamp",
            "columnName": "read_timestamp",
            "affinity": "INTEGER",
            "notNull": true
          },
          {
            "fieldPath": "readAcknowledged",
            "columnName": "read_acknowledged",
            "affinity": "INTEGER",
            "notNull": true
          },
          {
            "fieldPath": "metadata",
            "columnName": "metadata",
            "affinity": "TEXT",
            "notNull": false
          },
          {
            "fieldPath": "search",
            "columnName": "search",
            "affinity": "TEXT",
            "notNull": false
          },
          {
            "fieldPath": "messageStatus",
            "columnName": "message_status",
            "affinity": "TEXT",
            "notNull": false
          }
        ],
        "primaryKey": {
          "columnNames": [
            "message_id"
          ],
          "autoGenerate": false
        },
        "indices": [
          {
            "name": "index_messages_mask",
            "unique": false,
            "columnNames": [
              "mask"
            ],
            "createSql": "CREATE  INDEX `index_messages_mask` ON `${TABLE_NAME}` (`mask`)"
          }
        ],
        "foreignKeys": [
          {
            "table": "conversations",
            "onDelete": "CASCADE",
            "onUpdate": "NO ACTION",
            "columns": [
              "mask"
            ],
            "referencedColumns": [
              "mask"
            ]
          }
        ]
      }
    ],
    "setupQueries": [
      "CREATE TABLE IF NOT EXISTS room_master_table (id INTEGER PRIMARY KEY,identity_hash TEXT)",
      "INSERT OR REPLACE INTO room_master_table (id,identity_hash) VALUES(42, \"1fb795ff9898a1cd8ebdf166e99bce25\")"
    ]
  }
}